		<fieldset data-question-type="{{type}}" data-question-index="{{@index}}">
			<legend><i class='icon-list-alt'></i> {{type}} <span class='pull-right'><span class='badge'>{{indexplus1 @index}}. | <a href='#remove-question'><i class='icon-remove icon-light'></i></a></span>&nbsp;</span></legend>

{{! question text }}

			<div class="control-group" data-id="question.{{@index}}.prompt">
				<label class="control-label" for="prompt{{@index}}">Question</label>
				<div class="controls"><textarea data-attribute="prompt" rows="3" class="span6" id="prompt{{@index}}" placeholder="Question text">{{{prompt.textValue}}}</textarea>
				<span class="help-inline"><a href='#insert-picture'><i class='icon-picture'></i></a></span></div>
			</div>

{{! media on hotspot question... }}
			{{#compare type "QuestionChoiceMultiple"}}
			<div class="control-group" data-id="question.{{@index}}.media">
				<label class="control-label" for="media{{@index}}">Hotspot image</label>
				<div class="controls"><input data-attribute="media" type="text" class="span5" id="media{{@index}}" placeholder="Image" value="{{{singleQuote media.textValue}}}">
				<span class="help-inline"><a href='#insert-picture'><i class='icon-picture'></i></a> <a href='#hotspot-help'><i class='icon-question-sign'></i></a></span></div>
			</div>
			{{/compare}}
			

{{! distractors ... }}
			<div class="well" data-id="question.{{@index}}.answers">
			<table>

			{{#compare type "~" "QuestionFillIn,QuestionRankInOrder"}}

				<thead><tr>
					<th><i class='icon-keyboard icon-muted'></i></th>
					<th>{{#compare type "QuestionFillIn"}}Possible answers (case insensitive){{else}}Correct answer sequence{{/compare}}</th>
					<th><i class='icon-remove icon-muted'></i></th>
				</tr></thead>
				<tbody>
				{{#each choice}}
				<tr>
					<td>{{indexplus1 @index}}</td>
					{{#compare type "QuestionFillIn"}}
					<td><input data-attribute="choice" class="span4" id="choice{{@index}}" type="text" value="{{{textValue}}}"></td>
					{{else}}
					<td><div class="input-append"><input data-attribute="choice" class="span4" id="choice{{@index}}" type="text" value="{{{singleQuote textValue}}}"><span class="add-on"><a href='#insert-picture'><i class='icon-picture'></i></a></span></div></td>
					{{/compare}}
					<td><a href="#delete-row" title="Delete this row"><i class='icon-remove-sign'></i></a></td>
				</tr>
				{{/each}}


			{{else}}

				<thead><tr>
					{{! some types of question require the tick=true answer column}}
					{{#compare type "QuestionMatching"}}
						{{! no correct items}}
					{{else}}{{#compare type "QuestionDragToList"}}
						{{! no correct items}}
					{{else}}
						<th><i class='icon-check' title='Is correct?'></i></th>
					{{/compare}}{{/compare}}
					<th>Choice</th>
					<th>{{#compare type "QuestionMatching"}}
							Matches to
						{{else}}
							{{#compare type "QuestionDragToList"}}
								List / Grouping name
							{{else}}
								Feedback
							{{/compare}}
						{{/compare}}</th>
					<th><i class='icon-remove icon-muted'></i></th>
				</tr>
				</tr></thead>
				<tbody>
				{{#compare type "QuestionMatching"}}
					{{#each choiceA}}
					<tr>
						<td><div class="input-append"><input data-attribute="choiceA" class="span4" id="choice{{@index}}" type="text" value="{{{singleQuote textValue}}}"><span class="add-on"><a href='#insert-picture'><i class='icon-picture'></i></a></span></div></td>
						<td><div class="input-append"><input data-attribute="choiceB" class="span4" id="feedback{{@index}}" type="text" value="{{{siblingIndex @index ../this "choiceB"}}}"><span class="add-on"><a href='#insert-picture'><i class='icon-picture'></i></a></span></div></td>
						<td><a href="#delete-row" title="Delete this row"><i class='icon-remove-sign'></i></a></td>
					</tr>
					{{/each}}
				{{else}}
					{{! not a Match question}}
				{{#compare type "QuestionDragToList"}}
					{{#each choice}}
					<tr>
						<td><div class="input-append"><input data-attribute="choice" class="span4" id="choice{{@index}}" type="text" value="{{{singleQuote textValue}}}"><span class="add-on"><a href='#insert-picture'><i class='icon-picture'></i></a></span></div></td>
						<td><div class="input-append"><input data-attribute="list" class="span4" id="list{{@index}}" type="text" value="{{list}}"></div></td>
						<td><a href="#delete-row" title="Delete this row"><i class='icon-remove-sign'></i></a></td>
					</tr>
					{{/each}}
				{{else}}
					{{! not a Match or Drag question}}
					{{#each choice}}
					<tr>
						<td><input data-attribute="correct" type='checkbox' id='correct{{@index}}'{{#if correct}} checked{{/if}} value='true'></td>
						<td><div class="input-append"><input data-attribute="choice" class="span4" id="choice{{@index}}" type="text" value="{{{singleQuote textValue}}}"><span class="add-on"><a href='#insert-picture'><i class='icon-picture'></i></a></span></div></td>
						<td><div class="input-append"><input data-attribute="feedback" class="span4" id="feedback{{@index}}" type="text" value="{{{siblingIndex @index ../this "feedback"}}}"{{#compare ../type "!=" "QuestionChoice"}} disabled{{/compare}}></div></td>
						<td><a href="#delete-row" title="Delete this row"><i class='icon-remove-sign'></i></a></td>
					</tr>
					{{/each}}
				{{/compare}}{{/compare}}
			{{/compare}}
				</tbody>
			{{#compare type "!=" "QuestionTF"}}
				<tfoot><tr>
					<td colspan="2"><i class="icon-plus-sign"></i> <a href="#clone-row">Add a row</a></td>
				</tr></tfoot>
			{{/compare}}

			</table>

{{! put randomise option on some types }}
			{{#compare type "QuestionChoice"}}
			<label class="checkbox" data-id="question.{{@index}}.randomize">
			  <input data-attribute="randomize" type="checkbox" value="true" id="randomize"{{#compare randomize "true"}} checked{{/compare}}>
			  Randomize distractor order?
			</label>
			{{/compare}}
			{{#compare type "QuestionChoiceMultiple"}}
			<label class="checkbox" data-id="question.{{@index}}.randomize">
			  <input data-attribute="randomize" type="checkbox" value="true" id="randomize"{{#compare randomize "true"}} checked{{/compare}}>
			  Randomize distractor order?
			</label>
			{{/compare}}
			</div>

{{! answer layout drop down on some types }}
			{{#compare type "!=" "QuestionFillIn"}}
			<div class="control-group" data-id="question.{{@index}}.layout">
				<label class="control-label" for="layout{{@index}}">Answer layout</label>
				<div class="controls"><select id="layout{{@index}}" placeholder="Layout template" data-attribute="layout">
					<option value="stack"{{#compare layout "!=" "float"}} selected{{/compare}}>Stack (vertical)</option>
					<option value="float"{{#compare layout "float"}} selected{{/compare}}>Float (horizontal)</option>
				</select> <a href='#layout-help'><i class='icon-question-sign'></i></a></span></div>
			</div>
			{{/compare}}
						
{{! feedback for question }}
			<div class="control-group" data-id="question.{{@index}}.feedbackCorrect">
				<label class="control-label" for="feedbackCorrect{{@index}}">feedbackCorrect</label>
				<div class="controls"><textarea data-attribute="feedbackCorrect" class="input-block-level" rows="2" id="feedbackCorrect{{@index}}" placeholder="Feedback (correct)">{{feedbackCorrect.textValue}}</textarea></div>
			</div>
			<div class="control-group" data-id="question.{{@index}}.feedbackIncorrect">
				<label class="control-label" for="feedbackIncorrect{{@index}}">feedbackIncorrect</label>
				<div class="controls"><textarea data-attribute="feedbackIncorrect" class="input-block-level" rows="2" id="feedbackIncorrect{{@index}}" placeholder="Feedback (incorrect)">{{feedbackIncorrect.textValue}}</textarea></div>
			</div>
			<div class="control-group" data-id="question.{{@index}}.review">
				<label class="control-label" for="review{{@index}}">review</label>
				<div class="controls"><input data-attribute="review" type="text" id="review{{@index}}" placeholder="Review text" value="{{review.textValue}}"> <a href='#review-help'><i class='icon-question-sign'></i></a></span></div>
			</div>

		</fieldset>